%YAML 1.1
%TAG !u! tag:unity3d.com,2011:
--- !u!21 &2100000
Material:
  serializedVersion: 6
  m_ObjectHideFlags: 0
  m_CorrespondingSourceObject: {fileID: 0}
  m_PrefabInternal: {fileID: 0}
  m_Name: fearEfect
  m_Shader: {fileID: 4800000, guid: 7fcfcebb289a3fe468d38fa6b10ea70d, type: 3}
  m_ShaderKeywords: 
  m_LightmapFlags: 4
  m_EnableInstancingVariants: 0
  m_DoubleSidedGI: 0
  m_CustomRenderQueue: -1
  stringTagMap: {}
  disabledShaderPasses: []
  m_SavedProperties:
    serializedVersion: 3
    m_TexEnvs:
    - _MainTex:
        m_Texture: {fileID: 2800000, guid: 794744abdfde7f345be2258b03f87950, type: 3}
        m_Scale: {x: 5.37, y: 1}
        m_Offset: {x: 0, y: 0}
    - _TextPrin:
        m_Texture: {fileID: 2800000, guid: 794744abdfde7f345be2258b03f87950, type: 3}
        m_Scale: {x: 13.06, y: 1}
        m_Offset: {x: 0, y: 0}
    m_Floats:
    - _Glossiness: 0
    - _Gradient: 2
    - _Intensity: 3.67
    - _Metallic: 0
    m_Colors:
    - _Color: {r: 1, g: 1, b: 1, a: 1}
    - _SecondColor: {r: 1, g: 0, b: 0.17865467, a: 1}
